﻿[
  {
    "outputFile": "Content/css/site.css",
    "inputFile": "Content/sass/site/site.scss"
  },
    {
        "outputFile": "Content/css/inspinia.css",
        "inputFile": "Content/sass/inspinia/inspinia.scss"
    }
]